epsilon: episode_number*0.025 alfa: 0.60 gamma: 0.95
episode 0 score 0
episode 1 score 0
episode 2 score 0
episode 3 score 0
episode 4 score 0
episode 5 score 0
episode 6 score 0
episode 7 score 0
episode 8 score 0
episode 9 score 0
episode 10 score 0
episode 11 score 0
episode 12 score 0
episode 13 score 0
episode 14 score 0
episode 15 score 0
episode 16 score 0
episode 17 score 109
episode 18 score 0
episode 19 score 5
episode 20 score 61
episode 21 score 7
episode 22 score 6
episode 23 score 0
episode 24 score 0
episode 25 score 0
episode 26 score 0
episode 27 score 8
episode 28 score 7
episode 29 score 15
episode 30 score 0
episode 31 score 9
episode 32 score 0
episode 33 score 108
episode 34 score 27
episode 35 score 0
episode 36 score 146
episode 37 score 37
episode 38 score 265
episode 39 score 247
episode 40 score 0
episode 41 score 110
episode 42 score 28
episode 43 score 0
episode 44 score 198
episode 45 score 366
episode 46 score 34
episode 47 score 219
episode 48 score 134
episode 49 score 176
episode 50 score 35
episode 51 score 61
episode 52 score 19
episode 53 score 240
episode 54 score 415
episode 55 score 27
episode 56 score 40
episode 57 score 203
episode 58 score 78
episode 59 score 135
episode 60 score 28
episode 61 score 79
episode 62 score 70
episode 63 score 15
episode 64 score 119
episode 65 score 353
episode 66 score 104
episode 67 score 320
episode 68 score 321
episode 69 score 172
episode 70 score 78
episode 71 score 152
episode 72 score 455
episode 73 score 323
episode 74 score 180
episode 75 score 445
episode 76 score 161
episode 77 score 179
episode 78 score 450
episode 79 score 189
episode 80 score 342
episode 81 score 171
episode 82 score 163
episode 83 score 22
episode 84 score 301
episode 85 score 203
episode 86 score 203
episode 87 score 25
episode 88 score 146
episode 89 score 102
episode 90 score 64
episode 91 score 156
episode 92 score 439
episode 93 score 88
episode 94 score 170
episode 95 score 171
episode 96 score 380
episode 97 score 308
episode 98 score 367
episode 99 score 170
episode 100 score 202
episode 101 score 229
episode 102 score 394
episode 103 score 411
episode 104 score 237
episode 105 score 130
episode 106 score 232
episode 107 score 149
episode 108 score 513
episode 109 score 339
episode 110 score 149
episode 111 score 181
episode 112 score 517
episode 113 score 80
episode 114 score 0
episode 115 score 78
episode 116 score 67
episode 117 score 632
episode 118 score 72
episode 119 score 396
episode 120 score 187
episode 121 score 450
episode 122 score 93
episode 123 score 64
episode 124 score 21
episode 125 score 226
episode 126 score 40
episode 127 score 68
episode 128 score 38
episode 129 score 16
episode 130 score 142
episode 131 score 126
episode 132 score 28
episode 133 score 178
episode 134 score 25
episode 135 score 45
episode 136 score 25
episode 137 score 78
episode 138 score 67
episode 139 score 21
episode 140 score 51
episode 141 score 311
episode 142 score 72
episode 143 score 86
episode 144 score 72
episode 145 score 12
episode 146 score 27
episode 147 score 302
episode 148 score 34
episode 149 score 21
episode 150 score 221
episode 151 score 33
episode 152 score 125
episode 153 score 99
episode 154 score 164
episode 155 score 22
episode 156 score 24
episode 157 score 145
episode 158 score 123
episode 159 score 23
episode 160 score 156
episode 161 score 57
episode 162 score 38
episode 163 score 36
episode 164 score 228
episode 165 score 134
episode 166 score 21
episode 167 score 148
episode 168 score 195
episode 169 score 144
episode 170 score 87
episode 171 score 81
episode 172 score 22
episode 173 score 160
episode 174 score 148
episode 175 score 56
episode 176 score 17
episode 177 score 13
episode 178 score 89
episode 179 score 13
episode 180 score 258
episode 181 score 25
episode 182 score 341
episode 183 score 104
episode 184 score 62
episode 185 score 87
episode 186 score 65
episode 187 score 214
episode 188 score 181
episode 189 score 162
episode 190 score 359
episode 191 score 27
episode 192 score 267
episode 193 score 3
episode 194 score 233
episode 195 score 40
episode 196 score 120
episode 197 score 225
episode 198 score 53
episode 199 score 186
episode 200 score 187
episode 201 score 117
episode 202 score 87
episode 203 score 236
episode 204 score 67
episode 205 score 80
episode 206 score 150
episode 207 score 28
episode 208 score 110
episode 209 score 89
episode 210 score 164
episode 211 score 183
episode 212 score 108
episode 213 score 120
episode 214 score 153
episode 215 score 62
episode 216 score 61
episode 217 score 107
episode 218 score 57
episode 219 score 73
episode 220 score 168
episode 221 score 81
episode 222 score 247
episode 223 score 65
episode 224 score 121
episode 225 score 109
episode 226 score 257
episode 227 score 101
episode 228 score 89
episode 229 score 136
episode 230 score 17
episode 231 score 78
episode 232 score 22
episode 233 score 341
episode 234 score 49
episode 235 score 22
episode 236 score 95
episode 237 score 164
episode 238 score 49
episode 239 score 145
episode 240 score 53
episode 241 score 304
episode 242 score 60
episode 243 score 101
episode 244 score 33
episode 245 score 55
episode 246 score 44
episode 247 score 66
episode 248 score 28
episode 249 score 121
episode 250 score 21
episode 251 score 141
episode 252 score 112
episode 253 score 58
episode 254 score 122
episode 255 score 196
episode 256 score 80
episode 257 score 28
episode 258 score 116
episode 259 score 127
episode 260 score 36
episode 261 score 28
episode 262 score 68
episode 263 score 129
episode 264 score 22
episode 265 score 54
episode 266 score 28
episode 267 score 17
episode 268 score 137
episode 269 score 134
episode 270 score 57
episode 271 score 168
episode 272 score 93
episode 273 score 130
episode 274 score 25
episode 275 score 11
episode 276 score 73
episode 277 score 109
episode 278 score 88
episode 279 score 103
episode 280 score 271
episode 281 score 50
episode 282 score 24
episode 283 score 23
episode 284 score 30
episode 285 score 28
episode 286 score 145
episode 287 score 138
episode 288 score 109
episode 289 score 58
episode 290 score 62
episode 291 score 94
episode 292 score 22
episode 293 score 168
episode 294 score 104
episode 295 score 28
episode 296 score 89
episode 297 score 139
episode 298 score 104
episode 299 score 168
episode 300 score 126
episode 301 score 36
episode 302 score 185
episode 303 score 56
episode 304 score 206
episode 305 score 72
episode 306 score 91
episode 307 score 30
episode 308 score 82
episode 309 score 57
episode 310 score 134
episode 311 score 58
episode 312 score 81
episode 313 score 22
episode 314 score 195
episode 315 score 189
episode 316 score 152
episode 317 score 342
episode 318 score 179
episode 319 score 63
episode 320 score 135
episode 321 score 47
episode 322 score 84
episode 323 score 77
episode 324 score 150
episode 325 score 164
episode 326 score 114
episode 327 score 99
episode 328 score 32
episode 329 score 80
episode 330 score 137
episode 331 score 193
episode 332 score 25
episode 333 score 42
episode 334 score 105
episode 335 score 108
episode 336 score 214
episode 337 score 8
episode 338 score 206
episode 339 score 70
episode 340 score 100
episode 341 score 69
episode 342 score 213
episode 343 score 130
episode 344 score 101
episode 345 score 33
episode 346 score 93
episode 347 score 84
episode 348 score 319
episode 349 score 227
episode 350 score 578
episode 351 score 35
episode 352 score 50
episode 353 score 189
episode 354 score 18
episode 355 score 16
episode 356 score 112
episode 357 score 108
episode 358 score 50
episode 359 score 55
episode 360 score 30
episode 361 score 202
episode 362 score 116
episode 363 score 188
episode 364 score 117
episode 365 score 80
episode 366 score 61
episode 367 score 46
episode 368 score 49
episode 369 score 138
episode 370 score 134
episode 371 score 167
episode 372 score 38
episode 373 score 196
episode 374 score 162
episode 375 score 164
episode 376 score 166
episode 377 score 162
episode 378 score 108
episode 379 score 265
episode 380 score 149
episode 381 score 117
episode 382 score 88
episode 383 score 166
episode 384 score 66
episode 385 score 109
episode 386 score 117
episode 387 score 146
episode 388 score 21
episode 389 score 156
episode 390 score 282
episode 391 score 268
episode 392 score 70
episode 393 score 168
episode 394 score 304
episode 395 score 40
episode 396 score 69
episode 397 score 57
episode 398 score 75
episode 399 score 21
episode 400 score 464
episode 401 score 196
episode 402 score 99
episode 403 score 19
episode 404 score 89
episode 405 score 72
episode 406 score 84
episode 407 score 90
episode 408 score 115
episode 409 score 101
episode 410 score 105
episode 411 score 208
episode 412 score 121
episode 413 score 72
episode 414 score 223
episode 415 score 298
episode 416 score 158
episode 417 score 290
episode 418 score 161
episode 419 score 249
episode 420 score 199
episode 421 score 36
episode 422 score 339
episode 423 score 330
episode 424 score 139
episode 425 score 155
episode 426 score 178
episode 427 score 113
episode 428 score 239
episode 429 score 193
episode 430 score 192
episode 431 score 108
episode 432 score 244
episode 433 score 338
episode 434 score 22
episode 435 score 46
episode 436 score 17
episode 437 score 95
episode 438 score 57
episode 439 score 172
episode 440 score 70
episode 441 score 119
episode 442 score 63
episode 443 score 151
episode 444 score 152
episode 445 score 30
episode 446 score 268
episode 447 score 132
episode 448 score 140
episode 449 score 140
episode 450 score 35
episode 451 score 113
episode 452 score 9
episode 453 score 304
episode 454 score 522
episode 455 score 391
episode 456 score 153
episode 457 score 40
episode 458 score 297
episode 459 score 110
episode 460 score 207
episode 461 score 236
episode 462 score 74
episode 463 score 48
episode 464 score 220
episode 465 score 243
episode 466 score 292
episode 467 score 228
episode 468 score 77
episode 469 score 72
episode 470 score 36
episode 471 score 250
episode 472 score 112
episode 473 score 229
episode 474 score 73
episode 475 score 240
episode 476 score 236
episode 477 score 106
episode 478 score 40
episode 479 score 313
episode 480 score 217
episode 481 score 57
episode 482 score 270
episode 483 score 11
episode 484 score 202
episode 485 score 74
episode 486 score 97
episode 487 score 145
episode 488 score 22
episode 489 score 165
episode 490 score 352
episode 491 score 142
episode 492 score 237
episode 493 score 168
episode 494 score 195
episode 495 score 163
episode 496 score 18
episode 497 score 246
episode 498 score 189
episode 499 score 108
episode 500 score 91
episode 501 score 177
episode 502 score 40
episode 503 score 194
episode 504 score 34
episode 505 score 222
episode 506 score 149
episode 507 score 86
episode 508 score 96
episode 509 score 117
episode 510 score 264
episode 511 score 58
episode 512 score 71
episode 513 score 14
episode 514 score 174
episode 515 score 180
episode 516 score 8
episode 517 score 48
episode 518 score 274
episode 519 score 51
episode 520 score 184
episode 521 score 40
episode 522 score 302
episode 523 score 147
episode 524 score 101
episode 525 score 92
episode 526 score 189
episode 527 score 101
episode 528 score 157
episode 529 score 85
episode 530 score 237
episode 531 score 50
episode 532 score 135
episode 533 score 61
episode 534 score 93
episode 535 score 50
episode 536 score 453
episode 537 score 145
episode 538 score 123
episode 539 score 115
episode 540 score 250
episode 541 score 174
episode 542 score 129
episode 543 score 196
episode 544 score 155
episode 545 score 110
episode 546 score 271
episode 547 score 133
episode 548 score 150
episode 549 score 51
episode 550 score 119
episode 551 score 160
episode 552 score 240
episode 553 score 94
episode 554 score 245
episode 555 score 90
episode 556 score 132
episode 557 score 191
episode 558 score 17
episode 559 score 234
episode 560 score 110
episode 561 score 225
episode 562 score 64
episode 563 score 138
episode 564 score 193
episode 565 score 140
episode 566 score 129
episode 567 score 24
episode 568 score 280
episode 569 score 149
episode 570 score 149
episode 571 score 56
episode 572 score 134
episode 573 score 266
episode 574 score 280
episode 575 score 73
episode 576 score 139
episode 577 score 25
episode 578 score 57
episode 579 score 155
episode 580 score 171
episode 581 score 298
episode 582 score 46
episode 583 score 91
episode 584 score 211
episode 585 score 112
episode 586 score 45
episode 587 score 227
episode 588 score 233
episode 589 score 61
episode 590 score 122
episode 591 score 230
episode 592 score 24
episode 593 score 97
episode 594 score 221
episode 595 score 28
episode 596 score 202
episode 597 score 344
episode 598 score 89
episode 599 score 204
episode 600 score 60
episode 601 score 43
episode 602 score 17
episode 603 score 21
episode 604 score 206
episode 605 score 210
episode 606 score 174
episode 607 score 72
episode 608 score 122
episode 609 score 32
episode 610 score 36
episode 611 score 28
episode 612 score 276
episode 613 score 54
episode 614 score 19
episode 615 score 57
episode 616 score 112
episode 617 score 40
episode 618 score 51
episode 619 score 108
episode 620 score 308
episode 621 score 73
episode 622 score 251
episode 623 score 87
episode 624 score 237
episode 625 score 123
episode 626 score 272
episode 627 score 69
episode 628 score 71
episode 629 score 158
episode 630 score 87
episode 631 score 48
episode 632 score 322
episode 633 score 162
episode 634 score 138
episode 635 score 166
episode 636 score 151
episode 637 score 110
episode 638 score 211
episode 639 score 157
episode 640 score 160
episode 641 score 161
episode 642 score 117
episode 643 score 234
episode 644 score 206
episode 645 score 153
episode 646 score 90
episode 647 score 89
episode 648 score 114
episode 649 score 126
episode 650 score 110
episode 651 score 4
episode 652 score 162
episode 653 score 129
episode 654 score 271
episode 655 score 105
episode 656 score 40
episode 657 score 113
episode 658 score 76
episode 659 score 150
episode 660 score 124
episode 661 score 218
episode 662 score 64
episode 663 score 10
episode 664 score 182
episode 665 score 64
episode 666 score 101
episode 667 score 19
episode 668 score 105
episode 669 score 54
episode 670 score 28
episode 671 score 53
episode 672 score 5
episode 673 score 28
episode 674 score 17
episode 675 score 146
episode 676 score 32
episode 677 score 51
episode 678 score 135
episode 679 score 34
episode 680 score 36
episode 681 score 59
episode 682 score 16
episode 683 score 15
episode 684 score 66
episode 685 score 19
episode 686 score 132
episode 687 score 56
episode 688 score 121
episode 689 score 72
episode 690 score 100
episode 691 score 31
episode 692 score 9
episode 693 score 51
episode 694 score 169
episode 695 score 0
episode 696 score 84
episode 697 score 103
episode 698 score 107
episode 699 score 22
episode 700 score 45
episode 701 score 150
episode 702 score 36
episode 703 score 60
episode 704 score 39
episode 705 score 171
episode 706 score 40
episode 707 score 89
episode 708 score 56
episode 709 score 64
episode 710 score 135
episode 711 score 7
episode 712 score 73
episode 713 score 47
episode 714 score 97
episode 715 score 32
episode 716 score 89
episode 717 score 49
episode 718 score 31
episode 719 score 142
episode 720 score 145
episode 721 score 294
episode 722 score 56
episode 723 score 262
episode 724 score 153
episode 725 score 54
episode 726 score 104
episode 727 score 269
episode 728 score 86
episode 729 score 171
episode 730 score 74
episode 731 score 282
episode 732 score 43
episode 733 score 156
episode 734 score 172
episode 735 score 129
episode 736 score 54
episode 737 score 163
episode 738 score 113
episode 739 score 90
episode 740 score 148
episode 741 score 99
episode 742 score 290
episode 743 score 140
episode 744 score 32
episode 745 score 77
episode 746 score 66
episode 747 score 58
episode 748 score 115
episode 749 score 190
episode 750 score 197
episode 751 score 25
episode 752 score 91
episode 753 score 64
episode 754 score 83
episode 755 score 130
episode 756 score 52
episode 757 score 127
episode 758 score 108
episode 759 score 130
episode 760 score 149
episode 761 score 66
episode 762 score 113
episode 763 score 64
episode 764 score 64
episode 765 score 166
episode 766 score 205
episode 767 score 39
episode 768 score 10
episode 769 score 27
episode 770 score 9
episode 771 score 141
episode 772 score 178
episode 773 score 213
episode 774 score 40
episode 775 score 110
episode 776 score 105
episode 777 score 205
episode 778 score 235
episode 779 score 94
episode 780 score 234
episode 781 score 249
episode 782 score 106
episode 783 score 138
episode 784 score 239
episode 785 score 80
episode 786 score 57
episode 787 score 114
episode 788 score 91
episode 789 score 26
episode 790 score 24
episode 791 score 96
episode 792 score 152
episode 793 score 36
episode 794 score 69
episode 795 score 16
episode 796 score 295
episode 797 score 195
episode 798 score 132
episode 799 score 142
episode 800 score 293
episode 801 score 121
episode 802 score 346
episode 803 score 28
episode 804 score 217
episode 805 score 329
episode 806 score 26
episode 807 score 28
episode 808 score 127
episode 809 score 105
episode 810 score 64
episode 811 score 256
episode 812 score 139
episode 813 score 161
episode 814 score 167
episode 815 score 234
episode 816 score 155
episode 817 score 88
episode 818 score 113
episode 819 score 80
episode 820 score 145
episode 821 score 132
episode 822 score 226
episode 823 score 82
episode 824 score 63
episode 825 score 219
episode 826 score 54
episode 827 score 139
episode 828 score 52
episode 829 score 291
episode 830 score 342
episode 831 score 213
episode 832 score 216
episode 833 score 168
episode 834 score 60
episode 835 score 10
episode 836 score 89
episode 837 score 78
episode 838 score 115
episode 839 score 101
episode 840 score 195
episode 841 score 189
episode 842 score 122
episode 843 score 44
episode 844 score 62
episode 845 score 36
episode 846 score 54
episode 847 score 238
episode 848 score 74
episode 849 score 162
episode 850 score 357
episode 851 score 127
episode 852 score 433
episode 853 score 140
episode 854 score 160
episode 855 score 125
episode 856 score 48
episode 857 score 189
episode 858 score 148
episode 859 score 225
episode 860 score 198
episode 861 score 159
episode 862 score 143
episode 863 score 304
episode 864 score 109
episode 865 score 411
episode 866 score 74
episode 867 score 190
episode 868 score 50
episode 869 score 114
episode 870 score 186
episode 871 score 15
episode 872 score 352
episode 873 score 69
episode 874 score 208
episode 875 score 78
episode 876 score 51
episode 877 score 236
episode 878 score 144
episode 879 score 94
episode 880 score 57
episode 881 score 30
episode 882 score 157
episode 883 score 177
episode 884 score 197
episode 885 score 246
episode 886 score 171
episode 887 score 136
episode 888 score 273
episode 889 score 11
episode 890 score 176
episode 891 score 100
episode 892 score 121
episode 893 score 297
episode 894 score 234
episode 895 score 191
episode 896 score 316
episode 897 score 135
episode 898 score 174
episode 899 score 214
episode 900 score 173
episode 901 score 161
episode 902 score 178
episode 903 score 184
episode 904 score 154
episode 905 score 15
episode 906 score 93
episode 907 score 131
episode 908 score 221
episode 909 score 41
episode 910 score 123
episode 911 score 225
episode 912 score 132
episode 913 score 108
episode 914 score 191
episode 915 score 126
episode 916 score 298
episode 917 score 325
episode 918 score 172
episode 919 score 257
episode 920 score 241
episode 921 score 73
episode 922 score 128
episode 923 score 196
episode 924 score 308
episode 925 score 270
episode 926 score 306
episode 927 score 211
episode 928 score 203
episode 929 score 252
episode 930 score 114
episode 931 score 202
episode 932 score 432
episode 933 score 129
episode 934 score 115
episode 935 score 72
episode 936 score 266
episode 937 score 185
episode 938 score 196
episode 939 score 187
episode 940 score 271
episode 941 score 180
episode 942 score 190
episode 943 score 48
episode 944 score 63
episode 945 score 352
episode 946 score 392
episode 947 score 30
episode 948 score 182
episode 949 score 153
episode 950 score 244
episode 951 score 145
episode 952 score 36
episode 953 score 116
episode 954 score 69
episode 955 score 25
episode 956 score 70
episode 957 score 232
episode 958 score 87
episode 959 score 97
episode 960 score 28
episode 961 score 72
episode 962 score 184
episode 963 score 209
episode 964 score 319
episode 965 score 84
episode 966 score 32
episode 967 score 108
episode 968 score 109
episode 969 score 44
episode 970 score 390
episode 971 score 237
episode 972 score 96
episode 973 score 64
episode 974 score 99
episode 975 score 26
episode 976 score 100
episode 977 score 199
episode 978 score 131
episode 979 score 73
episode 980 score 118
episode 981 score 218
episode 982 score 162
episode 983 score 56
episode 984 score 215
episode 985 score 179
episode 986 score 78
episode 987 score 60
episode 988 score 113
episode 989 score 100
episode 990 score 81
episode 991 score 256
episode 992 score 125
episode 993 score 136
episode 994 score 183
episode 995 score 198
episode 996 score 171
episode 997 score 67
episode 998 score 105
episode 999 score 112