((0, 0, 0), 1) -447.30914284978104
((0, 0, 0), 2) 1130.4556797932962
((0, 0, 0), 3) -447.28899623095424
((0, 0, 0), 4) -447.82467335735095
((0, 0, 0), 5) -447.0794429638769
((0, 0, 1), 1) 594.7577462637463
((0, 0, 1), 2) 1265.8382170824716
((0, 0, 1), 3) 645.6977777010828
((0, 0, 1), 4) 663.5847541832732
((0, 0, 1), 5) 660.2410723843752
((0, 0, 2), 1) 730.7276534434866
((0, 0, 2), 2) 729.0681997281064
((0, 0, 2), 3) 1242.2938546420055
((0, 0, 2), 4) 730.2401988028605
((0, 0, 2), 5) 728.5363683658054
((0, 0, 3), 1) 1358.7190461379585
((0, 0, 3), 2) 717.6813883353019
((0, 0, 3), 3) 725.6750256232428
((0, 0, 3), 4) 709.0363246014302
((0, 0, 3), 5) 709.5851288200121
((0, 0, 4), 1) 1322.3302275264136
((0, 0, 4), 2) -2.0
((0, 0, 4), 3) -2.4875312109570316
((0, 0, 4), 4) -3.0385833021393256
((0, 0, 4), 5) -2.4875312109570316
((0, 1, 0), 1) -245.3943892543819
((0, 1, 0), 2) 1792.2664675963113
((0, 1, 0), 3) -105.38362931470024
((0, 1, 0), 4) -104.26453355775729
((0, 1, 0), 5) -151.7545252995866
((0, 1, 1), 1) 154.3440440601229
((0, 1, 1), 2) 1364.62682622622
((0, 1, 1), 3) 334.6195571847284
((0, 1, 1), 4) 193.43221157421692
((0, 1, 1), 5) 328.2215184743005
((0, 1, 2), 1) 1168.5439656109297
((0, 1, 2), 2) 361.1966238336569
((0, 1, 2), 3) 263.9812152127461
((0, 1, 2), 4) 185.94743438071635
((0, 1, 2), 5) 338.30886663106094
((0, 1, 3), 1) 471.69233870099106
((0, 1, 3), 2) 523.2629497455654
((0, 1, 3), 3) 1048.4002133784734
((0, 1, 3), 4) 466.472393454565
((0, 1, 3), 5) 236.01922507321316
((0, 1, 4), 1) 780.1339192552559
((0, 1, 4), 2) 182.26845258263256
((0, 1, 4), 3) -45.277713531729795
((0, 1, 4), 4) 10.393808883472431
((0, 1, 4), 5) 59.493146731027906
((1, 0, 0), 1) 608.1272394654561
((1, 0, 0), 2) -153.51788398704798
((1, 0, 0), 3) -38.94042096681974
((1, 0, 0), 4) -242.262373611125
((1, 0, 0), 5) -134.6085584961322
((1, 0, 1), 1) 84.8942945073892
((1, 0, 1), 2) 234.1683315340034
((1, 0, 1), 3) 1463.620984352191
((1, 0, 1), 4) 113.31587222142666
((1, 0, 1), 5) 278.75986531036665
((1, 0, 2), 1) 1289.7445512031827
((1, 0, 2), 2) 256.3864645384303
((1, 0, 2), 3) 255.0592777823765
((1, 0, 2), 4) 230.98476638177095
((1, 0, 2), 5) 103.30028815571127
((1, 0, 3), 1) 207.335851478064
((1, 0, 3), 2) 68.17410766757185
((1, 0, 3), 3) 1670.6075033097277
((1, 0, 3), 4) 227.8424923262107
((1, 0, 3), 5) 227.4556591255511
((1, 0, 4), 1) 206.01949288292042
((1, 0, 4), 2) 196.2079985497082
((1, 0, 4), 3) 1515.1952780162667
((1, 0, 4), 4) 290.8273682590349
((1, 0, 4), 5) 258.2229253726764
((1, 1, 0), 1) 141.75236154599645
((1, 1, 0), 2) 113.08632793985696
((1, 1, 0), 3) 2203.2526642991575
((1, 1, 0), 4) 40.59670185272977
((1, 1, 0), 5) 157.7204304937398
((1, 1, 1), 1) 2.6461508273530843
((1, 1, 1), 2) 44.07961204591021
((1, 1, 1), 3) 1631.1181296278055
((1, 1, 1), 4) 2.7358007803515165
((1, 1, 1), 5) 8.800876365238778
((1, 1, 2), 1) 1.064332805776949
((1, 1, 2), 2) 1.5784299855717179
((1, 1, 2), 3) 955.5550070581547
((1, 1, 2), 4) 2.33815003379269
((1, 1, 2), 5) 2.7887839800746836
((1, 1, 3), 1) 1.7880595823694994
((1, 1, 3), 2) 1.826597780595383
((1, 1, 3), 3) 2.4031848682349453
((1, 1, 3), 4) 1151.5871032750485
((1, 1, 3), 5) 1.369386283948576
((1, 1, 4), 1) 602.3357491551196
((1, 1, 4), 2) 2.6905002395327786
((1, 1, 4), 3) 3.0104111848185715
((1, 1, 4), 4) 1.2719454242872843
((1, 1, 4), 5) 1.726108672183466
